[
        {
                'ident' : 'FAC',
                'hash' : 'c9b8416f029f834a7c39c191de6180d9822f0e91e079809efaee9e6f64c34ba3',
                'patchnotes_url' : 'https://gitlab.com/theokrueger-mods/pd2-fading-ammobox-contours/-/releases',
                'download_url' : 'https://gitlab.com/theokrueger-mods/pd2-fading-ammobox-contours/uploads/98e480cecaafee67cac1c948c7abbf46/fading-ammobox-contours.zip'
        }
]
